<?xml version="1.0" encoding="utf-8"?>
<!-- Generator: Adobe Illustrator 26.0.2, SVG Export Plug-In . SVG Version: 6.00 Build 0)  -->
<svg version="1.1" id="Ebene_1" xmlns="http://www.w3.org/2000/svg" xmlns:xlink="http://www.w3.org/1999/xlink" x="0px" y="0px"
	 viewBox="0 0 115 115" style="enable-background:new 0 0 115 115;" xml:space="preserve">
<style type="text/css">
	.st0{display:none;}
	.st1{display:inline;fill:#666666;stroke:#000000;stroke-miterlimit:10;}
	.st2{display:none;fill:#FFFFFF;}
	.st3{display:inline;fill:#FFFFFF;}
	.st4{display:inline;fill:#009EE2;}
	.st5{display:inline;}
	.st6{fill:#E2141A;}
	.st7{fill:#264493;}
</style>
<g class="st0">
	<rect x="-121.7" y="424.3" class="st1" width="1604.6" height="1576.1"/>
</g>
<path class="st2" d="M7.9,1883.2v-28.9h-61.1v61.1h28.9c0.9,16.1,14.2,28.9,30.5,28.9c16.8,0,30.6-13.7,30.6-30.6
	C36.8,1897.4,24,1884.1,7.9,1883.2z M-49.8,1857.6H4.6v25.5l0,0c-15.5,0.9-28,13.3-28.8,28.8l0,0h-25.5L-49.8,1857.6L-49.8,1857.6z
	 M6.2,1940.9c-14.4,0-26.3-11.3-27.1-25.5H7.9v-28.8c14.2,0.9,25.5,12.7,25.5,27.1C33.4,1928.7,21.2,1940.9,6.2,1940.9z"/>
<g class="st0">
	<path class="st3" d="M94.7,1911.9h25.1v-25.1C106.6,1888,95.8,1898.7,94.7,1911.9z"/>
	<path class="st3" d="M123.5,1884.4v31.2H92.3c0.7,16,13.8,28.7,29.9,28.7c16.6,0,30-13.4,30-30
		C152.2,1898.2,139.5,1885.1,123.5,1884.4z"/>
	<path class="st3" d="M122.2,1883v-28.7h-60v60h28.7C90.9,1897,104.9,1883,122.2,1883z"/>
</g>
<g class="st0">
	<path class="st4" d="M183.8,1887.5h21.3v14.1h14.1v32.3h-35.3L183.8,1887.5L183.8,1887.5L183.8,1887.5z M208.1,1883.2h-28.7v55.2
		h44v-39.6L208.1,1883.2z"/>
	<rect x="189.8" y="1923.3" class="st4" width="23.4" height="4.6"/>
	<rect x="189.8" y="1914.3" class="st4" width="23.4" height="4.6"/>
	<rect x="189.8" y="1905.4" class="st4" width="23.4" height="4.6"/>
	<rect x="189.8" y="1896.4" class="st4" width="10.7" height="4.6"/>
	<path class="st4" d="M254.1,1864.4v22.5l-12-14.4l-13.8,13.5l5.1,6.4c0.3,0.4,0.3,0.9-0.1,1.2c-0.1,0.1-0.4,0.3-0.5,0.3
		s-0.1,0-0.3-0.1c0,0-0.1,0-0.1-0.1c-0.1,0-0.1-0.1-0.3-0.3l-4.8-6.2l0,0l-4.5-5.7l-13.8,12v-29.1L254.1,1864.4L254.1,1864.4
		L254.1,1864.4z M204.9,1905.3h53.3v-45.1h-53.3V1905.3z"/>
	<path class="st4" d="M216.9,1872.7c2.5,0,4.6-2,4.6-4.6c0-2.5-2-4.6-4.6-4.6c-2.5,0-4.6,2-4.6,4.6S214.2,1872.7,216.9,1872.7"/>
</g>
<g class="st0">
	<path class="st5" d="M297.4,1929.9c-6.3,0.1-11.3-4.8-11.2-11.2c0-5.9,5-10.8,11-10.9c6.3-0.1,11.4,4.9,11.3,11.2
		C308.4,1924.8,303.4,1929.8,297.4,1929.9z"/>
	<path class="st5" d="M335.2,1900c6.5-0.1,11.5,4.5,11.5,10.8c0,6.1-4.7,10.9-10.8,11c-6.4,0.1-11.4-4.6-11.5-10.9
		C324.4,1904.9,329,1900.2,335.2,1900z"/>
	<path class="st5" d="M326.1,1869.1c0-6.5,4.7-11.3,11-11.3c6,0,10.8,4.8,10.9,10.9c0.1,6.4-4.8,11.3-11.1,11.2
		C330.5,1879.8,326.1,1875.4,326.1,1869.1z"/>
	<path class="st5" d="M349.5,1924.9c4.4,0.1,7.8,3.7,7.6,8.2c-0.1,4.4-3.8,7.9-8.1,7.7c-4.4-0.2-7.9-3.8-7.8-8.2
		C341.4,1928.4,345.3,1924.7,349.5,1924.9z"/>
	<path class="st5" d="M310.9,1889.7c4.6-0.1,8.2,3.2,8.2,7.6c0,4.4-3.5,8-8,8c-4.2,0-7.6-3.3-7.8-7.5
		C303,1893.1,306.2,1889.8,310.9,1889.7z"/>
	<path class="st5" d="M348.1,1885.2c4.5,0.1,7.9,3.5,7.8,8c-0.1,4.3-3.8,7.9-8.1,7.8c-4.3-0.1-7.9-3.8-7.8-8.1
		C340.1,1888.5,343.6,1885.1,348.1,1885.2z"/>
	<path class="st5" d="M312.3,1883.1c-0.4,2.4-1.6,3.9-3.7,3.9c-2.4,0-3.9-1.6-3.7-4.1c0.2-2.2,1.6-3.4,3.9-3.3
		C311,1879.8,312,1881.2,312.3,1883.1z"/>
	<path class="st5" d="M367.4,1916.7c-0.2,2.3-1.3,3.8-3.6,3.8c-2.4,0-4-1.5-3.9-4c0.1-2.2,1.6-3.5,3.8-3.4
		C366,1913.2,367.1,1914.7,367.4,1916.7z"/>
	<path class="st5" d="M324.9,1884.1c-0.2,2.2-1.3,3.6-3.5,3.7c-2.5,0.1-4-1.2-4-3.7c0-2.3,1.5-3.4,3.7-3.4
		C323.3,1880.7,324.5,1882,324.9,1884.1z"/>
	<path class="st5" d="M299.4,1900c-0.4,2.1-1.7,3.4-3.9,3.4c-2.2,0-3.6-1.3-3.5-3.6c0.1-2.4,1.6-3.9,4-3.7
		C298.3,1896.2,299.4,1897.7,299.4,1900z"/>
	<path class="st5" d="M358.2,1906.2c0,2.2-0.9,3.8-3.2,4c-2.5,0.2-4-1.2-4-3.7c0-2.2,1.2-3.6,3.5-3.7
		C356.8,1902.7,358,1904,358.2,1906.2z"/>
	<path class="st5" d="M282.7,1915.7c-0.2,2.2-1.2,3.7-3.5,3.7c-2.5,0-3.8-1.5-3.7-4c0.1-2.2,1.5-3.5,3.7-3.4
		C281.5,1912,282.5,1913.5,282.7,1915.7z"/>
	<path class="st5" d="M357.8,1917.9c-0.3,2.2-1.6,3.6-3.8,3.5c-2.4-0.1-3.8-1.7-3.6-4.1c0.2-2.2,1.7-3.4,3.9-3.1
		C356.5,1914.3,357.6,1915.8,357.8,1917.9z"/>
	<path class="st5" d="M335.4,1890.6c-2.4-0.2-3.8-1.4-3.9-3.6c-0.1-2.2,1.1-3.7,3.3-3.8c2.5-0.2,3.9,1.2,4,3.7
		C338.8,1889.2,337.2,1890.1,335.4,1890.6z"/>
	<path class="st5" d="M319.9,1868.6c2.1,0.5,3.6,1.6,3.5,3.8c-0.1,2.4-1.7,3.8-4.2,3.5c-2.2-0.2-3.3-1.7-3.1-3.9
		C316.3,1869.8,317.7,1868.7,319.9,1868.6z"/>
	<path class="st5" d="M288.3,1904.8c0,2.2-1.2,3.7-3.3,3.9c-2.4,0.2-4-1.3-4-3.7c0-2.1,1.4-3.5,3.6-3.5
		C286.8,1901.4,288,1902.6,288.3,1904.8z"/>
	<path class="st5" d="M367.1,1927.7c-0.3,2.1-1.4,3.5-3.6,3.7c-2.2,0.1-3.7-1.2-3.8-3.3c-0.2-2.4,1.3-4,3.7-4
		C365.6,1924.1,366.7,1925.6,367.1,1927.7z"/>
	<path class="st5" d="M315.7,1916.9c-2.3-0.4-3.7-1.6-3.7-3.8c0.1-2.5,1.6-3.8,4-3.5c2.2,0.2,3.3,1.6,3.1,3.8
		C319,1915.6,317.5,1916.5,315.7,1916.9z"/>
	<path class="st5" d="M356.6,1878.8c-0.4,2.1-1.6,3.6-3.8,3.5c-2.4-0.1-3.8-1.6-3.5-4.1c0.2-2.2,1.7-3.3,3.9-3.1
		S356.4,1876.7,356.6,1878.8z"/>
	<path class="st5" d="M322.5,1920.9c2.4,0.2,3.7,1.4,3.7,3.7s-1.3,3.6-3.6,3.6c-2.2,0-3.6-1.4-3.6-3.7
		C319.1,1922.3,320.5,1921.1,322.5,1920.9z"/>
	<path class="st5" d="M335.8,1932.6c-2.2-0.1-3.6-1.2-3.7-3.4s1-3.7,3.3-3.8c2.2-0.1,3.7,1.1,3.8,3.3
		C339.3,1931,338,1932.2,335.8,1932.6z"/>
	<path class="st5" d="M327,1891c2.3,0.1,3.6,1.3,3.6,3.6s-1.4,3.5-3.6,3.6c-2.3,0-3.6-1.4-3.7-3.6
		C323.3,1892.3,324.7,1891.1,327,1891z"/>
</g>
<g class="st0">
	<path class="st3" d="M453.7,1924.6c0-3.6-2.7-6.4-6.3-6.4c-6.2,0-12.5,0-18.7,0c-3.7,0-6.4,2.7-6.4,6.4c0,1,0,1.9,0,3
		c-4.2,0-8.4,0-12.6,0c0-8.4,0-16.7,0-25.1c4.2,0,8.3,0,12.6,0c0,0.9,0,1.8,0,2.7c0,4,2.7,6.7,6.6,6.7c6.1,0,12.1,0,18.2,0
		c3.9,0,6.6-2.7,6.6-6.6c0-4,0-7.9,0-11.9c0-3.9-2.7-6.6-6.6-6.6c-6.1,0-12.2,0-18.3,0c-3.9,0-6.5,2.7-6.6,6.6c0,0.9,0,1.9,0,2.8
		c-4.3,0-8.4,0-12.5,0c0-5.3,0-10.5,0-15.7c2.1,0,4.2,0,6.3,0c3.5,0,6.2-2.8,6.2-6.3c0-4.2,0-8.4,0-12.6c0-3.5-2.8-6.3-6.2-6.3
		c-6.3,0-12.7,0-19,0c-3.4,0-6.2,2.8-6.2,6.2c0,4.2,0,8.5,0,12.7c0,3,2.1,5.6,5,6c2.1,0.3,4.2,0.1,6.4,0.2c0.4,0,0.8,0,1.2,0
		c0,0.6,0,1,0,1.4c0,16.2,0,32.3,0,48.5c0,2.4,1.2,3.6,3.6,3.6c4.7,0,9.4,0,14.2,0c0.4,0,0.7,0,1.2,0c0,1.1,0,2.1,0,3
		c0,3.7,2.7,6.4,6.4,6.4c6.2,0,12.5,0,18.7,0c3.6,0,6.3-2.8,6.4-6.4C453.7,1932.8,453.7,1928.7,453.7,1924.6z M428.6,1893.1
		c6.2,0,12.5,0,18.8,0c0,4.2,0,8.3,0,12.5c-6.3,0-12.5,0-18.8,0C428.6,1901.4,428.6,1897.3,428.6,1893.1z M397.1,1874.1
		c0-4.1,0-8.3,0-12.5c6.3,0,12.5,0,18.8,0c0,4.2,0,8.3,0,12.5C409.7,1874.1,403.4,1874.1,397.1,1874.1z M447.4,1937
		c-6.2,0-12.4,0-18.8,0c0-4.2,0-8.3,0-12.5c6.2,0,12.5,0,18.8,0C447.4,1928.6,447.4,1932.8,447.4,1937z"/>
</g>
<path class="st2" d="M677.3,1909.5h-3.6l-1.3-1.2c10.6-12.3,9.2-31-3.1-41.5c-12.3-10.6-31-9.2-41.5,3.1c-2.6,3-4.5,6.4-5.6,9.8
	c-1.5-0.9-2.9-1.8-4.5-2.7c-0.3-0.2-0.5-0.2-0.7,0.1c-3.2,3.2-6.3,6.4-9.5,9.5c-0.1,0.1-0.1,0.2-0.2,0.3c0.8,1.2,1.7,2.5,2.6,3.6
	c0.5,0.8,1.1,1.6,1.6,2.5c0.1,0.2,0.1,0.4,0.1,0.5c-0.3,0.6-0.5,1.3-0.9,1.8c-0.1,0.2-0.3,0.4-0.5,0.5c-2.4,0.5-4.7,1-7.1,1.5
	c-0.1,0-0.2,0-0.3,0c0,4.9,0,9.8,0,14.7c0.5,0.1,1.2,0.3,1.7,0.4c1.8,0.4,3.7,0.7,5.6,1.1c0.3,0.1,0.5,0.3,0.5,0.5
	c0.3,0.5,0.5,1.2,0.5,1.8c0,0.2-0.1,0.5-0.2,0.6c-1.4,2-2.6,4-4,5.9c3.5,3.5,6.9,6.9,10.5,10.5c0.6-0.5,1.5-1,2.2-1.5
	c1.3-0.8,2.5-1.7,3.7-2.6c0.2-0.1,0.5-0.2,0.7-0.1c0.5,0.1,1.2,0.3,1.6,0.5c0.2,0.1,0.4,0.4,0.5,0.5c0.5,2.3,1,4.6,1.5,6.9
	c0,0.1,0,0.2,0,0.3c4.9,0,9.7,0,14.7,0c0.1-0.5,0.3-1.2,0.4-1.7c0.4-1.8,0.7-3.7,1.1-5.6c0.1-0.3,0.3-0.5,0.5-0.5
	c0.5-0.3,1.2-0.5,1.8-0.5c0.2,0,0.5,0.1,0.6,0.2c2,1.4,4,2.6,5.8,4c3.5-3.5,6.9-6.9,10.5-10.5c-0.3-0.5-0.7-1-1.1-1.5
	c-0.8-1.2-1.6-2.4-2.5-3.6c3.5-1.2,6.7-3,9.7-5.6l1.2,1.3v3.6l22.6,22.6l6.7-6.7L677.3,1909.5z M654.2,1893.6
	c0.9,1.6,1.6,3.4,2.1,5.3c0.1,0.2,0.4,0.5,0.5,0.5c1.9,0.4,3.9,0.7,5.8,1c0.2,0,0.3,0.1,0.5,0.2c0,1.4,0,2.8,0,4.2
	c-3.6,3-8.1,4.8-13.1,4.8c-0.6,0-1.3,0-1.9-0.1c0.6-1.6,0.9-3.2,0.9-4.9c0-7.7-6.5-14-14.1-14.1c-1.8,0-3.6,0.4-5.2,1
	c-0.1-0.7-0.2-1.5-0.2-2.3c0-4.9,1.7-9.4,4.6-12.9c1.4,0,2.8,0,4.2,0c0.5,0,0.6,0.1,0.7,0.5c0.4,1.9,0.6,3.9,1,5.8
	c0,0.2,0.3,0.5,0.5,0.5c1.8,0.5,3.6,1.1,5.1,2.1c0.4,0.2,0.5,0.2,0.9,0c1.5-1,3.1-2,4.6-3c0.2-0.1,0.4-0.3,0.5-0.4
	c1.9,1.9,3.7,3.7,5.7,5.7c-0.5,0.7-1,1.6-1.5,2.5s-1.2,1.8-1.7,2.7C654.1,1893,654.1,1893.4,654.2,1893.6z M624.9,1904.4
	c1.5,2.6,3.6,4.9,5.9,7c1.5,1.2,2.9,2.3,4.5,3.2c-0.1,0-0.3,0-0.4,0C629.3,1914.6,624.9,1910.1,624.9,1904.4
	C624.9,1904.5,624.9,1904.4,624.9,1904.4z M644.2,1908.7c-6.5-1.9-11.6-6.9-13.6-13.3c1.3-0.6,2.7-0.9,4.4-0.9
	c5.6,0,10.1,4.5,10.1,10.1C645.1,1906,644.8,1907.4,644.2,1908.7z M657.5,1921.4c-1.9,1.9-3.8,3.8-5.7,5.7c-1.3-0.8-2.6-1.6-3.9-2.6
	c-1.1-0.8-1.9-0.9-3.1-0.2s-2.6,1.1-4,1.5c-0.4,0.1-0.5,0.3-0.6,0.6c-0.3,1.9-0.6,3.9-1,5.8c0,0.2-0.1,0.3-0.1,0.5
	c-2.6,0-5.4,0-8.1,0c-0.3-1.4-0.5-2.7-0.7-4.1c-0.1-0.7-0.3-1.5-0.5-2.3c-0.1-0.2-0.3-0.5-0.5-0.5c-1.8-0.5-3.5-1.1-5-2.1
	c-0.4-0.3-0.6-0.2-1,0.1c-1.7,1.1-3.4,2.2-5,3.3c-1.9-1.9-3.8-3.8-5.7-5.7c1-1.5,2.1-3.3,3.2-4.9c0.3-0.5,0.3-0.8,0-1.3
	c-0.9-1.5-1.5-3.1-1.9-4.8c-0.1-0.5-0.3-0.6-0.7-0.6c-1.9-0.3-3.8-0.6-5.7-1c-0.3-0.1-0.5-0.1-0.5-0.5c0-2.6,0-5.1,0-7.7
	c1.6-0.3,3.3-0.6,4.9-0.8c1.3-0.2,2.1-0.5,2.4-2c0.3-1.4,1-2.6,1.6-3.8c0.2-0.5,0.2-0.7-0.1-1.1c-1.2-1.6-2.5-3.4-3.6-5
	c1.9-1.9,3.8-3.8,5.7-5.7c1,0.6,2.2,1.4,3.3,2.1c-0.8,4.9-0.5,9.9,1.2,14.7c-0.8,1.8-1.4,3.7-1.3,5.8c0,7.7,6.5,14,14.1,14.1
	c2.2,0,4.3-0.5,6.1-1.5c4.6,1.5,9.6,1.7,14.3,0.9C656.2,1919.2,656.9,1920.3,657.5,1921.4z M667.3,1900c0-0.9,0-1.9,0-2.8
	c-0.5-0.1-1.2-0.3-1.7-0.4c-1.8-0.4-3.7-0.7-5.6-1.1c-0.3-0.1-0.5-0.3-0.5-0.5c-0.3-0.5-0.5-1.2-0.5-1.8c0-0.2,0.1-0.5,0.2-0.6
	c1.4-2,2.6-4,4-5.9c-3.5-3.5-6.9-6.9-10.5-10.5c-0.6,0.5-1.5,1-2.2,1.5c-1.3,0.8-2.5,1.7-3.7,2.6c-0.2,0.1-0.5,0.2-0.7,0.1
	c-0.5-0.1-1.2-0.3-1.6-0.5c-0.2-0.1-0.4-0.4-0.5-0.5c-0.5-2.3-1-4.6-1.5-6.9c0-0.1,0-0.2,0-0.3c-1.2,0-2.5,0-3.6,0
	c3.3-2.2,7.2-3.5,11.4-3.5c11.3,0,20.4,9.1,20.4,20.4C670.5,1893.2,669.3,1896.9,667.3,1900z"/>
<path class="st0" d="M558.1,1909.5h-3.6l-1.3-1.2c10.6-12.3,9.2-31-3.1-41.5c-12.3-10.6-31-9.2-41.5,3.1c-2.6,3-4.5,6.4-5.6,9.8
	c-1.5-0.9-2.9-1.8-4.5-2.7c-0.3-0.2-0.5-0.2-0.7,0.1c-3.2,3.2-6.3,6.4-9.5,9.5c-0.1,0.1-0.1,0.2-0.2,0.3c0.8,1.2,1.7,2.5,2.6,3.6
	c0.5,0.8,1.1,1.6,1.6,2.5c0.1,0.2,0.1,0.4,0.1,0.5c-0.3,0.6-0.5,1.3-0.9,1.8c-0.1,0.2-0.3,0.4-0.5,0.5c-2.4,0.5-4.7,1-7.1,1.5
	c-0.1,0-0.2,0-0.3,0c0,4.9,0,9.8,0,14.7c0.5,0.1,1.2,0.3,1.7,0.4c1.8,0.4,3.7,0.7,5.6,1.1c0.3,0.1,0.5,0.3,0.5,0.5
	c0.3,0.5,0.5,1.2,0.5,1.8c0,0.2-0.1,0.5-0.2,0.6c-1.4,2-2.6,4-4,5.9c3.5,3.5,6.9,6.9,10.5,10.5c0.6-0.5,1.5-1,2.2-1.5
	c1.3-0.8,2.5-1.7,3.7-2.6c0.2-0.1,0.5-0.2,0.7-0.1c0.5,0.1,1.2,0.3,1.6,0.5c0.2,0.1,0.4,0.4,0.5,0.5c0.5,2.3,1,4.6,1.5,6.9
	c0,0.1,0,0.2,0,0.3c4.9,0,9.7,0,14.7,0c0.1-0.5,0.3-1.2,0.4-1.7c0.4-1.8,0.7-3.7,1.1-5.6c0.1-0.3,0.3-0.5,0.5-0.5
	c0.5-0.3,1.2-0.5,1.8-0.5c0.2,0,0.5,0.1,0.6,0.2c2,1.4,4,2.6,5.8,4c3.5-3.5,6.9-6.9,10.5-10.5c-0.3-0.5-0.7-1-1.1-1.5
	c-0.8-1.2-1.6-2.4-2.5-3.6c3.5-1.2,6.7-3,9.7-5.6l1.2,1.3v3.6l22.6,22.6l6.7-6.7L558.1,1909.5z M535.1,1893.6
	c0.9,1.6,1.6,3.4,2.1,5.3c0.1,0.2,0.4,0.5,0.5,0.5c1.9,0.4,3.9,0.7,5.8,1c0.2,0,0.3,0.1,0.5,0.2c0,1.4,0,2.8,0,4.2
	c-3.6,3-8.1,4.8-13.1,4.8c-0.6,0-1.3,0-1.9-0.1c0.6-1.6,0.9-3.2,0.9-4.9c0-7.7-6.5-14-14.1-14.1c-1.8,0-3.6,0.4-5.2,1
	c-0.1-0.7-0.2-1.5-0.2-2.3c0-4.9,1.7-9.4,4.6-12.9c1.4,0,2.8,0,4.2,0c0.5,0,0.6,0.1,0.7,0.5c0.4,1.9,0.6,3.9,1,5.8
	c0,0.2,0.3,0.5,0.5,0.5c1.8,0.5,3.6,1.1,5.1,2.1c0.4,0.2,0.5,0.2,0.9,0c1.5-1,3.1-2,4.6-3c0.2-0.1,0.4-0.3,0.5-0.4
	c1.9,1.9,3.7,3.7,5.7,5.7c-0.5,0.7-1,1.6-1.5,2.5s-1.2,1.8-1.7,2.7C535,1893,535,1893.4,535.1,1893.6z M505.7,1904.4
	c1.5,2.6,3.6,4.9,5.9,7c1.5,1.2,2.9,2.3,4.5,3.2c-0.1,0-0.3,0-0.4,0C510.1,1914.6,505.7,1910.1,505.7,1904.4
	C505.7,1904.5,505.7,1904.4,505.7,1904.4z M525,1908.7c-6.5-1.9-11.6-6.9-13.6-13.3c1.3-0.6,2.7-0.9,4.4-0.9
	c5.6,0,10.1,4.5,10.1,10.1C525.9,1906,525.6,1907.4,525,1908.7z M538.3,1921.4c-1.9,1.9-3.8,3.8-5.7,5.7c-1.3-0.8-2.6-1.6-3.9-2.6
	c-1.1-0.8-1.9-0.9-3.1-0.2s-2.6,1.1-4,1.5c-0.4,0.1-0.5,0.3-0.6,0.6c-0.3,1.9-0.6,3.9-1,5.8c0,0.2-0.1,0.3-0.1,0.5
	c-2.6,0-5.4,0-8.1,0c-0.3-1.4-0.5-2.7-0.7-4.1c-0.1-0.7-0.3-1.5-0.5-2.3c-0.1-0.2-0.3-0.5-0.5-0.5c-1.8-0.5-3.5-1.1-5-2.1
	c-0.4-0.3-0.6-0.2-1,0.1c-1.7,1.1-3.4,2.2-5,3.3c-1.9-1.9-3.8-3.8-5.7-5.7c1-1.5,2.1-3.3,3.2-4.9c0.3-0.5,0.3-0.8,0-1.3
	c-0.9-1.5-1.5-3.1-1.9-4.8c-0.1-0.5-0.3-0.6-0.7-0.6c-1.9-0.3-3.8-0.6-5.7-1c-0.3-0.1-0.5-0.1-0.5-0.5c0-2.6,0-5.1,0-7.7
	c1.6-0.3,3.3-0.6,4.9-0.8c1.3-0.2,2.1-0.5,2.4-2c0.3-1.4,1-2.6,1.6-3.8c0.2-0.5,0.2-0.7-0.1-1.1c-1.2-1.6-2.5-3.4-3.6-5
	c1.9-1.9,3.8-3.8,5.7-5.7c1,0.6,2.2,1.4,3.3,2.1c-0.8,4.9-0.5,9.9,1.2,14.7c-0.8,1.8-1.4,3.7-1.3,5.8c0,7.7,6.5,14,14.1,14.1
	c2.2,0,4.3-0.5,6.1-1.5c4.6,1.5,9.6,1.7,14.3,0.9C537,1919.2,537.7,1920.3,538.3,1921.4z M548.1,1900c0-0.9,0-1.9,0-2.8
	c-0.5-0.1-1.2-0.3-1.7-0.4c-1.8-0.4-3.7-0.7-5.6-1.1c-0.3-0.1-0.5-0.3-0.5-0.5c-0.3-0.5-0.5-1.2-0.5-1.8c0-0.2,0.1-0.5,0.2-0.6
	c1.4-2,2.6-4,4-5.9c-3.5-3.5-6.9-6.9-10.5-10.5c-0.6,0.5-1.5,1-2.2,1.5c-1.3,0.8-2.5,1.7-3.7,2.6c-0.2,0.1-0.5,0.2-0.7,0.1
	c-0.5-0.1-1.2-0.3-1.6-0.5c-0.2-0.1-0.4-0.4-0.5-0.5c-0.5-2.3-1-4.6-1.5-6.9c0-0.1,0-0.2,0-0.3c-1.2,0-2.5,0-3.6,0
	c3.3-2.2,7.2-3.5,11.4-3.5c11.3,0,20.4,9.1,20.4,20.4C551.3,1893.2,550.1,1896.9,548.1,1900z"/>
<g>
	<path class="st6" d="M30.7,44.9C34.5,47.5,39,49,44,49c4.9,0,9.5-1.5,13.3-4.1c6.3-4.3,10.4-11.4,10.4-19.5
		c0-13-10.6-23.6-23.6-23.6S20.5,12.4,20.5,25.4C20.3,33.5,24.4,40.7,30.7,44.9z"/>
	<path class="st6" d="M78,58.6c-1.2-1.4-2.5-2.8-3.9-4L48.9,79.6l4,4L78,58.6z"/>
	<path class="st6" d="M35.2,78.3l1-1l29-29c-0.6-0.3-1.3-0.6-1.9-1c-0.9,0.8-1.9,1.6-2.9,2.3c-4.9,3.3-10.5,5.1-16.5,5.1
		c-5.9,0-11.6-1.8-16.4-5.1c-1-0.7-2-1.5-2.9-2.3C14,52.5,5.7,61.6,1.7,72.7c9,6.8,19.7,11.4,31.3,13.2l1.7-6.7L35.2,78.3z"/>
	<path class="st6" d="M84.8,69.2c-0.8-1.8-1.8-3.5-2.8-5.1L61.6,84.6C65.9,83.5,70,82,74,80.1L84.8,69.2z"/>
	<path class="st7" d="M28.2,113.1l33.4-8.4l3.1-3.2l46.2-46.2c3.2-3.1,3.2-8.3,0-11.5L97.6,30.5c-1.6-1.6-3.8-2.5-5.9-2.5
		c-2.1,0-4.1,0.8-5.7,2.4L37.6,78.7l-1,1L28.2,113.1z M92.2,51.1l6.8,6.8L61.7,95.2l-6.8-6.8L92.2,51.1z M83.4,42.4l6.8,6.8
		L52.9,86.4l-6.8-6.8L83.4,42.4z M58.3,101.3l-17.1,4.3l-5.3-5.6l4.2-16.9L58.3,101.3z"/>
</g>
</svg>
