<?xml version="1.0" encoding="utf-8"?>
<!-- Generator: Adobe Illustrator 26.0.2, SVG Export Plug-In . SVG Version: 6.00 Build 0)  -->
<svg version="1.1" id="Ebene_1" xmlns="http://www.w3.org/2000/svg" xmlns:xlink="http://www.w3.org/1999/xlink" x="0px" y="0px"
	 viewBox="0 0 55.8 55.8" style="enable-background:new 0 0 55.8 55.8;" xml:space="preserve">
<style type="text/css">
	.st0{fill:#264493;}
</style>
<path class="st0" d="M27.9,0.1C12.6,0.1,0.1,12.6,0.1,27.9s12.4,27.8,27.8,27.8h13.9v-5.6H27.9C15.8,50.1,5.7,40,5.7,27.9
	S15.8,5.7,27.9,5.7s22.2,10.2,22.2,22.2v4c0,2.2-2,4.4-4.2,4.4s-4.2-2.2-4.2-4.4v-4c0-7.7-6.2-13.9-13.9-13.9S14,20.2,14,27.9
	s6.2,13.9,13.9,13.9c3.8,0,7.3-1.6,9.8-4.1c1.8,2.5,4.9,4.1,8.2,4.1c5.5,0,9.7-4.4,9.7-9.9v-4C55.7,12.6,43.2,0.1,27.9,0.1z
	 M27.9,36.2c-4.6,0-8.3-3.7-8.3-8.3s3.7-8.3,8.3-8.3s8.3,3.7,8.3,8.3S32.5,36.2,27.9,36.2z"/>
</svg>
