<svg xmlns="http://www.w3.org/2000/svg" width="57.086" height="59.319" viewBox="0 0 57.086 59.319">
  <g id="Gruppe_369" data-name="Gruppe 369" transform="translate(0)">
    <g id="Gruppe_249" data-name="Gruppe 249" transform="translate(0 0)">
      <path id="Pfad_494" data-name="Pfad 494" d="M206.782,43.813a18.2,18.2,0,1,0-17.168,24.216,17.845,17.845,0,0,0,5.723-.907l.419-.14-.14-.419a24.225,24.225,0,0,1-.7-2.582l-.07-.489-.419.14a15.705,15.705,0,0,1-4.746.768,14.655,14.655,0,1,1,13.888-19.261l.14.489.419-.209a26.012,26.012,0,0,1,2.443-1.117l.419-.14Z" transform="translate(-171.4 -31.6)" fill="#e2141a"/>
    </g>
    <path id="Pfad_495" data-name="Pfad 495" d="M223.772,51.7A15.756,15.756,0,0,0,208,67.472c0,8.723,15.772,29.52,15.772,29.52s15.772-20.866,15.772-29.52A15.8,15.8,0,0,0,223.772,51.7Zm0,23.937a8.165,8.165,0,1,1,8.165-8.165A8.176,8.176,0,0,1,223.772,75.637Z" transform="translate(-182.458 -37.673)" fill="#264493"/>
    <path id="Pfad_534" data-name="Pfad 534" d="M2454.255,34.764l-2.63-2.63a1.624,1.624,0,0,0-2.294-.02h0l-9.572,9.552-.2.2-1.661,6.605,6.605-1.661.613-.633,9.136-9.136A1.6,1.6,0,0,0,2454.255,34.764Zm-5.438-.277,1.345,1.345-7.376,7.357-1.345-1.345Zm-8.345,12.5-1.048-1.107.83-3.342,3.6,3.6Zm4.054-2.057-1.345-1.345,7.376-7.376,1.345,1.345Z" transform="translate(-2428.19 -23.206)" fill="#e2141a"/>
  </g>
</svg>
